{
  "version": "14.0.0",
  "vulnerabilities": [
    {
      "id": "5130b5a6e0b09fdb24109839174a598087b7f9774a65cd0294fb1cdc4de53143",
      "category": "sast",
      "message": "Improper Certificate Validation",
      "description": "Certificate verification has been explicitly disabled. This\npermits insecure connections to insecure servers. Re-enable\ncertification validation.\n",
      "cve": "",
      "severity": "Critical",
      "scanner": {
        "id": "semgrep",
        "name": "Semgrep"
      },
      "location": {
        "file": "tests/e2e_zap.py",
        "start_line": 17,
        "end_line": 18
      },
      "identifiers": [
        {
          "type": "semgrep_id",
          "name": "bandit.B501",
          "value": "bandit.B501"
        },
        {
          "type": "cwe",
          "name": "CWE-295",
          "value": "295",
          "url": "https://cwe.mitre.org/data/definitions/295.html"
        },
        {
          "type": "owasp",
          "name": "Sensitive Data Exposure",
          "value": "A3"
        },
        {
          "type": "bandit_test_id",
          "name": "Bandit Test ID B501",
          "value": "B501"
        }
      ]
    },
    {
      "id": "6fa2181dd7e7e09705bae1c9182e90a018932527a9586879755772d1aa0d6f07",
      "category": "sast",
      "message": "Deserialization of Untrusted Data",
      "description": "Avoid using `load()`. `PyYAML.load` can create arbitrary Python\nobjects. A malicious actor could exploit this to run arbitrary\ncode. Use `safe_load()` instead.\n",
      "cve": "",
      "severity": "Critical",
      "scanner": {
        "id": "semgrep",
        "name": "Semgrep"
      },
      "location": {
        "file": "app/app.py",
        "start_line": 329,
        "end_line": 329
      },
      "identifiers": [
        {
          "type": "semgrep_id",
          "name": "bandit.B506",
          "value": "bandit.B506"
        },
        {
          "type": "cwe",
          "name": "CWE-502",
          "value": "502",
          "url": "https://cwe.mitre.org/data/definitions/502.html"
        },
        {
          "type": "owasp",
          "name": "Insecure Deserialization",
          "value": "A8"
        },
        {
          "type": "bandit_test_id",
          "name": "Bandit Test ID B506",
          "value": "B506"
        }
      ]
    },
    {
      "id": "3b38545b4386ddadf58fdeccc894cd8ec8473e2e32d4eab3b2bc2450ddd852e5",
      "category": "sast",
      "message": "Improper Certificate Validation",
      "description": "Certificate verification has been explicitly disabled. This\npermits insecure connections to insecure servers. Re-enable\ncertification validation.\n",
      "cve": "",
      "severity": "Critical",
      "scanner": {
        "id": "semgrep",
        "name": "Semgrep"
      },
      "location": {
        "file": "tests/e2e_zap.py",
        "start_line": 44,
        "end_line": 45
      },
      "identifiers": [
        {
          "type": "semgrep_id",
          "name": "bandit.B501",
          "value": "bandit.B501"
        },
        {
          "type": "cwe",
          "name": "CWE-295",
          "value": "295",
          "url": "https://cwe.mitre.org/data/definitions/295.html"
        },
        {
          "type": "owasp",
          "name": "Sensitive Data Exposure",
          "value": "A3"
        },
        {
          "type": "bandit_test_id",
          "name": "Bandit Test ID B501",
          "value": "B501"
        }
      ]
    },
    {
      "id": "66ae63ccd581379f36e280058baf3d964f4c58d25b16a37e1c2643499f5791b7",
      "category": "sast",
      "message": "Improper Certificate Validation",
      "description": "Certificate verification has been explicitly disabled. This\npermits insecure connections to insecure servers. Re-enable\ncertification validation.\n",
      "cve": "",
      "severity": "Critical",
      "scanner": {
        "id": "semgrep",
        "name": "Semgrep"
      },
      "location": {
        "file": "tests/e2e_zap.py",
        "start_line": 36,
        "end_line": 37
      },
      "identifiers": [
        {
          "type": "semgrep_id",
          "name": "bandit.B501",
          "value": "bandit.B501"
        },
        {
          "type": "cwe",
          "name": "CWE-295",
          "value": "295",
          "url": "https://cwe.mitre.org/data/definitions/295.html"
        },
        {
          "type": "owasp",
          "name": "Sensitive Data Exposure",
          "value": "A3"
        },
        {
          "type": "bandit_test_id",
          "name": "Bandit Test ID B501",
          "value": "B501"
        }
      ]
    },
    {
      "id": "2dfc2090f3c4f3838828a39cb1f3d655b8444489013c2c1e6a13565de597b836",
      "category": "sast",
      "message": "Improper Certificate Validation",
      "description": "Certificate verification has been explicitly disabled. This\npermits insecure connections to insecure servers. Re-enable\ncertification validation.\n",
      "cve": "",
      "severity": "Critical",
      "scanner": {
        "id": "semgrep",
        "name": "Semgrep"
      },
      "location": {
        "file": "tests/e2e_zap.py",
        "start_line": 28,
        "end_line": 29
      },
      "identifiers": [
        {
          "type": "semgrep_id",
          "name": "bandit.B501",
          "value": "bandit.B501"
        },
        {
          "type": "cwe",
          "name": "CWE-295",
          "value": "295",
          "url": "https://cwe.mitre.org/data/definitions/295.html"
        },
        {
          "type": "owasp",
          "name": "Sensitive Data Exposure",
          "value": "A3"
        },
        {
          "type": "bandit_test_id",
          "name": "Bandit Test ID B501",
          "value": "B501"
        }
      ]
    },
    {
      "id": "750b8ac96be44407aa1c4162690ca32a90058da472106810a469b89a5ec39329",
      "category": "sast",
      "message": "Improper Control of Generation of Code ('Code Injection')",
      "description": "Bracket object notation with user input is present, this might allow an attacker to access all properties of the object and even it's prototype, leading to possible code execution.",
      "cve": "",
      "severity": "Medium",
      "scanner": {
        "id": "semgrep",
        "name": "Semgrep"
      },
      "location": {
        "file": "app/static/main.js",
        "start_line": 27,
        "end_line": 27
      },
      "identifiers": [
        {
          "type": "semgrep_id",
          "name": "eslint.detect-object-injection",
          "value": "eslint.detect-object-injection"
        },
        {
          "type": "cwe",
          "name": "CWE-94",
          "value": "94",
          "url": "https://cwe.mitre.org/data/definitions/94.html"
        },
        {
          "type": "eslint_rule_id",
          "name": "ESLint rule ID security/detect-object-injection",
          "value": "security/detect-object-injection"
        }
      ]
    },
    {
      "id": "2c4efce9f31385707082dbf13961ee052089a980796ea4c0522248eae861101f",
      "category": "sast",
      "message": "Improper Neutralization of Special Elements used in an SQL Command ('SQL Injection')",
      "description": "Detected possible formatted SQL query. Use parameterized queries instead.\n",
      "cve": "",
      "severity": "Medium",
      "scanner": {
        "id": "semgrep",
        "name": "Semgrep"
      },
      "location": {
        "file": "app/app.py",
        "start_line": 265,
        "end_line": 265
      },
      "identifiers": [
        {
          "type": "semgrep_id",
          "name": "bandit.B608",
          "value": "bandit.B608"
        },
        {
          "type": "cwe",
          "name": "CWE-89",
          "value": "89",
          "url": "https://cwe.mitre.org/data/definitions/89.html"
        },
        {
          "type": "owasp",
          "name": "Injection",
          "value": "A1"
        },
        {
          "type": "bandit_test_id",
          "name": "Bandit Test ID B608",
          "value": "B608"
        }
      ]
    },
    {
      "id": "8ad9c94f58b5772a8d8465a56a15c01024c7ab9be38630f015fc6b266dff3dde",
      "category": "sast",
      "message": "Improper Neutralization of Directives in Dynamically Evaluated Code ('Eval Injection')",
      "description": "Detected eval(variable), which could allow a malicious actor to run arbitrary code.\n",
      "cve": "",
      "severity": "Medium",
      "scanner": {
        "id": "semgrep",
        "name": "Semgrep"
      },
      "location": {
        "file": "app/static/main.js",
        "start_line": 10,
        "end_line": 10
      },
      "identifiers": [
        {
          "type": "semgrep_id",
          "name": "eslint.detect-eval-with-expression",
          "value": "eslint.detect-eval-with-expression"
        },
        {
          "type": "cwe",
          "name": "CWE-95",
          "value": "95",
          "url": "https://cwe.mitre.org/data/definitions/95.html"
        },
        {
          "type": "owasp",
          "name": "Injection",
          "value": "A1"
        },
        {
          "type": "eslint_rule_id",
          "name": "ESLint rule ID security/detect-eval-with-expression",
          "value": "security/detect-eval-with-expression"
        }
      ]
    },
    {
      "id": "fd2aa683e069794941269ed07641730f7984a8cd7e4f402958fdc9c58fbf0703",
      "category": "sast",
      "message": "Use of a Broken or Risky Cryptographic Algorithm",
      "description": "Detected MD5 hash algorithm which is considered insecure. MD5 is not\ncollision resistant and is therefore not suitable as a cryptographic\nsignature. Use SHA256 or SHA3 instead.\n",
      "cve": "",
      "severity": "Medium",
      "scanner": {
        "id": "semgrep",
        "name": "Semgrep"
      },
      "location": {
        "file": "app/app.py",
        "start_line": 141,
        "end_line": 141
      },
      "identifiers": [
        {
          "type": "semgrep_id",
          "name": "bandit.B303-1",
          "value": "bandit.B303-1"
        },
        {
          "type": "cwe",
          "name": "CWE-327",
          "value": "327",
          "url": "https://cwe.mitre.org/data/definitions/327.html"
        },
        {
          "type": "owasp",
          "name": "Sensitive Data Exposure",
          "value": "A3"
        },
        {
          "type": "bandit_test_id",
          "name": "Bandit Test ID B303",
          "value": "B303"
        }
      ]
    },
    {
      "id": "a2caf7a4a9d21a45e55fcbb07bae21013200cf81e3b155db55d51703aa044299",
      "category": "sast",
      "message": "Incorrect Regular Expression",
      "description": "RegExp() called with a variable, this might allow an attacker to DOS your application with a long-running regular expression.\n",
      "cve": "",
      "severity": "Medium",
      "scanner": {
        "id": "semgrep",
        "name": "Semgrep"
      },
      "location": {
        "file": "app/static/main.js",
        "start_line": 15,
        "end_line": 15
      },
      "identifiers": [
        {
          "type": "semgrep_id",
          "name": "eslint.detect-non-literal-regexp",
          "value": "eslint.detect-non-literal-regexp"
        },
        {
          "type": "cwe",
          "name": "CWE-185",
          "value": "185",
          "url": "https://cwe.mitre.org/data/definitions/185.html"
        },
        {
          "type": "eslint_rule_id",
          "name": "ESLint rule ID security/detect-non-literal-regexp",
          "value": "security/detect-non-literal-regexp"
        }
      ]
    },
    {
      "id": "6d51242f47161c3935085857c1fd0960b62d39538d6bf516fb92a4539d933c41",
      "category": "sast",
      "message": "Use of Insufficiently Random Values",
      "description": "Standard pseudo-random generators are not suitable for security/cryptographic purposes.\n",
      "cve": "",
      "severity": "Info",
      "scanner": {
        "id": "semgrep",
        "name": "Semgrep"
      },
      "location": {
        "file": "app/app.py",
        "start_line": 319,
        "end_line": 319
      },
      "identifiers": [
        {
          "type": "semgrep_id",
          "name": "bandit.B311",
          "value": "bandit.B311"
        },
        {
          "type": "cwe",
          "name": "CWE-330",
          "value": "330",
          "url": "https://cwe.mitre.org/data/definitions/330.html"
        },
        {
          "type": "owasp",
          "name": "Sensitive Data Exposure",
          "value": "A3"
        },
        {
          "type": "bandit_test_id",
          "name": "Bandit Test ID B311",
          "value": "B311"
        }
      ]
    },
    {
      "id": "0c6c387e1ff24204f90fb45f5306f4900ba1b4f380f9e36e071eb7c1cd3b157c",
      "category": "sast",
      "message": "Use of Insufficiently Random Values",
      "description": "Standard pseudo-random generators are not suitable for security/cryptographic purposes.\n",
      "cve": "",
      "severity": "Info",
      "scanner": {
        "id": "semgrep",
        "name": "Semgrep"
      },
      "location": {
        "file": "app/app.py",
        "start_line": 295,
        "end_line": 295
      },
      "identifiers": [
        {
          "type": "semgrep_id",
          "name": "bandit.B311",
          "value": "bandit.B311"
        },
        {
          "type": "cwe",
          "name": "CWE-330",
          "value": "330",
          "url": "https://cwe.mitre.org/data/definitions/330.html"
        },
        {
          "type": "owasp",
          "name": "Sensitive Data Exposure",
          "value": "A3"
        },
        {
          "type": "bandit_test_id",
          "name": "Bandit Test ID B311",
          "value": "B311"
        }
      ]
    },
    {
      "id": "55387bda5a8e00626197d8f48e03b6bf6c2df68db326e6152a1f3ae232050b16",
      "category": "sast",
      "message": "Use of Hard-coded Password",
      "description": "Possible hardcoded password\n",
      "cve": "",
      "severity": "Info",
      "scanner": {
        "id": "semgrep",
        "name": "Semgrep"
      },
      "location": {
        "file": "app/app.py",
        "start_line": 63,
        "end_line": 63
      },
      "identifiers": [
        {
          "type": "semgrep_id",
          "name": "bandit.B105",
          "value": "bandit.B105"
        },
        {
          "type": "cwe",
          "name": "CWE-259",
          "value": "259",
          "url": "https://cwe.mitre.org/data/definitions/259.html"
        },
        {
          "type": "owasp",
          "name": "Broken Authentication and Session Management",
          "value": "A3"
        },
        {
          "type": "bandit_test_id",
          "name": "Bandit Test ID B105",
          "value": "B105"
        }
      ]
    },
    {
      "id": "e2a119bdecc4ecb52134181178a9000c5dc8d8417f8f107dc409dee7b915b836",
      "category": "sast",
      "message": "Use of Hard-coded Password",
      "description": "Possible hardcoded password\n",
      "cve": "",
      "severity": "Info",
      "scanner": {
        "id": "semgrep",
        "name": "Semgrep"
      },
      "location": {
        "file": "app/app.py",
        "start_line": 28,
        "end_line": 28
      },
      "identifiers": [
        {
          "type": "semgrep_id",
          "name": "bandit.B105",
          "value": "bandit.B105"
        },
        {
          "type": "cwe",
          "name": "CWE-259",
          "value": "259",
          "url": "https://cwe.mitre.org/data/definitions/259.html"
        },
        {
          "type": "owasp",
          "name": "Broken Authentication and Session Management",
          "value": "A3"
        },
        {
          "type": "bandit_test_id",
          "name": "Bandit Test ID B105",
          "value": "B105"
        }
      ]
    }
  ],
  "remediations": [],
  "scan": {
    "scanner": {
      "id": "semgrep",
      "name": "Semgrep",
      "url": "https://github.com/returntocorp/semgrep",
      "vendor": {
        "name": "GitLab"
      },
      "version": "0.51.0"
    },
    "type": "sast",
    "start_time": "2021-05-14T05:43:30",
    "end_time": "2021-05-14T05:43:43",
    "status": "success"
  }
}
